{
    "N": 5000,
    "gap_percentage": 0.0,
    "TimeUnit": "days",
    "ln_L": 1683.0303169164426,
    "ln_det_I": 93.53387696243026,
    "ln_det_HH": 65.44516341702297,
    "driving_noise": 0.17281310323376212,
    "ln_det_C": 0.0,
    "AIC": -3348.0606338328853,
    "BIC": -3289.405895110139,
    "KIC": -3195.872018147709,
    "NoiseModel": {
        "White": {
            "fraction": 1.0,
            "sigma": 0.17281310323376212
        }
    },
    "trend": 0.05479890389731354,
    "trend_sigma": 0.004164008157015442,
    "jump_epochs": [
        51994.0,
        53544.0,
        55044.0
    ],
    "jump_sizes": [
        3.1691446528765503,
        -1.9146937053548427,
        0.785368868195718
    ],
    "jump_sigmas": [
        0.024333095343787702,
        0.02546202993211788,
        0.02112954892096362
    ],
    "postseismicexp_epochs": [
        [
            53544.0,
            100.0
        ]
    ],
    "postseismicexp_sizes": [
        0.8963661089780857
    ],
    "postseismicexp_sigmas": [
        0.02935534742649199
    ],
    "postseismiclog_epochs": [
        [
            51994.0,
            10.0
        ],
        [
            55044.0,
            10.0
        ]
    ],
    "postseismiclog_sizes": [
        0.12843591175996494,
        -0.29674434486157963
    ],
    "postseismiclog_sigmas": [
        0.007352974181150207,
        0.006460958218650639
    ],
    "PhysicalUnit": "mm"
}